Process
…
Loading PISA 2018 result dataset

# We'll be naming the data frame stud_perf_2018
stud_perf_2018 <- load_student(2018)
# Since we only wanted to grab the PISA 2018 result we passed 2018 as argument to the load_student function provided by the learningtower package

Here’s a table view of the entire PISA 2018 dataset:

# RESERVED FOR FINAL
# DO NOT UNCOMMENT YET!
# reactable(stud_perf_2018)

stud_perf_2018

## # A tibble: 612,004 x 22
##    year  country school_id student_id mother_educ father_educ gender computer
##    <fct> <fct>   <fct>     <fct>      <fct>       <fct>       <fct>  <fct>   
##  1 2018  ALB     800002    800251     ISCED 3A    ISCED 3A    male   yes     
##  2 2018  ALB     800002    800402     ISCED 2     ISCED 2     male   yes     
##  3 2018  ALB     800002    801902     ISCED 2     ISCED 2     female no      
##  4 2018  ALB     800002    803546     ISCED 2     ISCED 2     male   no      
##  5 2018  ALB     800002    804776     ISCED 2     ISCED 3A    male   yes     
##  6 2018  ALB     800002    804825     ISCED 2     ISCED 2     female yes     
##  7 2018  ALB     800002    804983     <NA>        <NA>        female <NA>    
##  8 2018  ALB     800002    805287     ISCED 2     ISCED 2     male   no      
##  9 2018  ALB     800002    805601     ISCED 2     ISCED 2     female yes     
## 10 2018  ALB     800002    806295     <NA>        <NA>        female <NA>    
## # ... with 611,994 more rows, and 14 more variables: internet <fct>,
## #   math <dbl>, read <dbl>, science <dbl>, stu_wgt <dbl>, desk <fct>,
## #   room <fct>, dishwasher <fct>, television <fct>, computer_n <fct>,
## #   car <fct>, book <fct>, wealth <dbl>, escs <dbl>
…
